\relax 
\catcode `"\active 
\select@language{brazil}
\@writefile{toc}{\select@language{brazil}}
\@writefile{lof}{\select@language{brazil}}
\@writefile{lot}{\select@language{brazil}}
\@writefile{toc}{\contentsline {section}{\numberline {1}Introdu\IeC {\c c}\IeC {\~a}o}{1}}
\@writefile{toc}{\contentsline {subsection}{\numberline {1.1}Contexto}{2}}
\@writefile{toc}{\contentsline {subsection}{\numberline {1.2}Objetivos}{2}}
\@writefile{toc}{\contentsline {subsection}{\numberline {1.3}Premissas}{2}}
\@writefile{toc}{\contentsline {section}{\numberline {2}Processo de Engenharia de Requisitos}{2}}
\@writefile{toc}{\contentsline {subsection}{\numberline {2.1}Sazonalidade}{2}}
\@writefile{toc}{\contentsline {subsection}{\numberline {2.2}Sobre a Metodologia}{2}}
\citation{Oslo}
\citation{Schirru-14}
\citation{lei10973}
\citation{lei11196}
\@writefile{toc}{\contentsline {subsection}{\numberline {2.3}Em que momento dever\IeC {\'a} ser aplicada esta metodologia}{3}}
\@writefile{toc}{\contentsline {subsection}{\numberline {2.4}O que acharemos na Metodologia e o que n\IeC {\~a}o teremos}{3}}
\@writefile{toc}{\contentsline {subsection}{\numberline {2.5}Usu\IeC {\'a}rios da Metodologia}{3}}
\@writefile{toc}{\contentsline {subsection}{\numberline {2.6}Defini\IeC {\c c}\IeC {\~o}es Necess\IeC {\'a}rias para o bom entendimento}{3}}
\@writefile{toc}{\contentsline {subsubsection}{\numberline {2.6.1}As Engenharias Progressiva e Reversa}{3}}
\@writefile{toc}{\contentsline {subsubsection}{\numberline {2.6.2}Formas de Utiliza\IeC {\c c}\IeC {\~a}o da ER}{3}}
\citation{Paiva-2016}
\citation{lei9609}
\@writefile{lof}{\contentsline {figure}{\numberline {1}{\ignorespaces Engenharia Progressiva e a Engenharia Reversa}}{4}}
\@writefile{toc}{\contentsline {section}{\numberline {3}A Metodologia}{4}}
\citation{TRIPS}
\bibstyle{sbc}
\bibdata{sbc-template}
\bibcite{TRIPS}{TRI }
\bibcite{lei10973}{lei a}
\bibcite{lei11196}{lei b}
\bibcite{lei9609}{lei c}
\bibcite{Oslo}{e~FINEP }
\bibcite{Paiva-2016}{Renato~Paiva 2016}
\bibcite{Schirru-14}{Schirru 2014}
\@writefile{toc}{\contentsline {section}{\numberline {4}Conclus\IeC {\~o}es}{6}}
